EESchema Schematic File Version 4
LIBS:wireless-card-cache
EELAYER 26 0
EELAYER END
$Descr A4 11693 8268
encoding utf-8
Sheet 1 1
Title ""
Date ""
Rev ""
Comp ""
Comment1 ""
Comment2 ""
Comment3 ""
Comment4 ""
$EndDescr
$Comp
L Driver_Motor:DRV8833PW U2
U 1 1 5C4078A1
P 4850 2000
F 0 "U2" H 5050 1300 50  0000 C CNN
F 1 "DRV8833PW" H 5200 1400 50  0000 C CNN
F 2 "Package_SO:TSSOP-16_4.4x5mm_P0.65mm" H 5300 2450 50  0001 L CNN
F 3 "http://www.ti.com/lit/ds/symlink/drv8833.pdf" H 4700 2550 50  0001 C CNN
	1    4850 2000
	1    0    0    -1  
$EndComp
Wire Wire Line
	2850 1700 3500 1700
Wire Wire Line
	3500 1700 3500 2100
Wire Wire Line
	3500 2100 4250 2100
Wire Wire Line
	4250 2200 3400 2200
Wire Wire Line
	3400 2200 3400 1800
Wire Wire Line
	3400 1800 2850 1800
Wire Wire Line
	2850 1900 3600 1900
Wire Wire Line
	3600 1900 3600 1600
Wire Wire Line
	3600 1600 4250 1600
Wire Wire Line
	2850 2000 3300 2000
$Comp
L Switch:SW_Push SW1
U 1 1 5C407F98
P 2900 3300
F 0 "SW1" H 2900 3585 50  0000 C CNN
F 1 "SW_Push" H 2900 3494 50  0000 C CNN
F 2 "Connector_Wire:SolderWirePad_1x02_P7.62mm_Drill2mm" H 2900 3500 50  0001 C CNN
F 3 "" H 2900 3500 50  0001 C CNN
	1    2900 3300
	1    0    0    -1  
$EndComp
Wire Wire Line
	2600 3300 2700 3300
$Comp
L power:GND #PWR0101
U 1 1 5C40812C
P 2600 3350
F 0 "#PWR0101" H 2600 3100 50  0001 C CNN
F 1 "GND" H 2605 3177 50  0000 C CNN
F 2 "" H 2600 3350 50  0001 C CNN
F 3 "" H 2600 3350 50  0001 C CNN
	1    2600 3350
	1    0    0    -1  
$EndComp
Wire Wire Line
	2600 3350 2600 3300
Wire Wire Line
	3100 3300 3300 3300
Wire Wire Line
	3300 2000 3300 3300
Wire Wire Line
	3300 3300 3400 3300
Connection ~ 3300 3300
$Comp
L Device:R R1
U 1 1 5C408BF2
P 3550 3300
F 0 "R1" V 3343 3300 50  0000 C CNN
F 1 "10k" V 3434 3300 50  0000 C CNN
F 2 "Resistor_SMD:R_0603_1608Metric_Pad1.05x0.95mm_HandSolder" V 3480 3300 50  0001 C CNN
F 3 "~" H 3550 3300 50  0001 C CNN
	1    3550 3300
	0    1    1    0   
$EndComp
Text GLabel 3750 3300 2    50   Input ~ 0
Vcc
Wire Wire Line
	3750 3300 3700 3300
Wire Wire Line
	2850 2100 3200 2100
Wire Wire Line
	3200 2100 3200 2850
Wire Wire Line
	2250 2600 2250 2850
$Comp
L Device:R R2
U 1 1 5C409CD6
P 2500 2850
F 0 "R2" V 2293 2850 50  0000 C CNN
F 1 "470" V 2384 2850 50  0000 C CNN
F 2 "Resistor_SMD:R_0603_1608Metric_Pad1.05x0.95mm_HandSolder" V 2430 2850 50  0001 C CNN
F 3 "~" H 2500 2850 50  0001 C CNN
	1    2500 2850
	0    1    1    0   
$EndComp
$Comp
L Device:LED D1
U 1 1 5C409D2D
P 2900 2850
F 0 "D1" H 2891 3066 50  0000 C CNN
F 1 "LED" H 2891 2975 50  0000 C CNN
F 2 "LED_SMD:LED_0805_2012Metric_Pad1.15x1.40mm_HandSolder" H 2900 2850 50  0001 C CNN
F 3 "~" H 2900 2850 50  0001 C CNN
	1    2900 2850
	1    0    0    -1  
$EndComp
Wire Wire Line
	3200 2850 3050 2850
Wire Wire Line
	2750 2850 2650 2850
Wire Wire Line
	2350 2850 2250 2850
Text GLabel 2900 2200 2    50   Input ~ 0
RESET
Wire Wire Line
	2850 2200 2900 2200
Text GLabel 2500 800  1    50   Input ~ 0
Vcc
Text GLabel 9700 2000 1    50   Input ~ 0
Vcc
$Comp
L power:GND #PWR0102
U 1 1 5C420C30
P 9700 2500
F 0 "#PWR0102" H 9700 2250 50  0001 C CNN
F 1 "GND" H 9705 2327 50  0000 C CNN
F 2 "" H 9700 2500 50  0001 C CNN
F 3 "" H 9700 2500 50  0001 C CNN
	1    9700 2500
	1    0    0    -1  
$EndComp
Wire Wire Line
	9700 2000 9700 2050
Wire Wire Line
	9700 2450 9700 2500
$Comp
L Connector:AVR-ISP-6 J1
U 1 1 5C42186B
P 8500 2300
F 0 "J1" H 8220 2396 50  0000 R CNN
F 1 "AVR-ISP-6" H 8220 2305 50  0000 R CNN
F 2 "Connector_PinSocket_2.54mm:PinSocket_1x06_P2.54mm_Horizontal" V 8250 2350 50  0001 C CNN
F 3 " ~" H 7225 1750 50  0001 C CNN
	1    8500 2300
	1    0    0    -1  
$EndComp
$Comp
L power:GND #PWR0103
U 1 1 5C42195B
P 8400 2750
F 0 "#PWR0103" H 8400 2500 50  0001 C CNN
F 1 "GND" H 8405 2577 50  0000 C CNN
F 2 "" H 8400 2750 50  0001 C CNN
F 3 "" H 8400 2750 50  0001 C CNN
	1    8400 2750
	1    0    0    -1  
$EndComp
Text GLabel 8950 2100 2    50   Input ~ 0
MISO
Text GLabel 8950 2200 2    50   Input ~ 0
MOSI
Text GLabel 8950 2300 2    50   Input ~ 0
SCK
Text GLabel 8950 2400 2    50   Input ~ 0
RST
Wire Wire Line
	8900 2100 8950 2100
Wire Wire Line
	8950 2200 8900 2200
Wire Wire Line
	8900 2300 8950 2300
Wire Wire Line
	8950 2400 8900 2400
Wire Wire Line
	8400 2750 8400 2700
Text Label 3000 1700 0    50   ~ 0
MISO
Text Label 3000 1800 0    50   ~ 0
MOSI
Text Label 3000 1900 0    50   ~ 0
SCK
$Comp
L power:GND #PWR0104
U 1 1 5C4240E3
P 4850 2750
F 0 "#PWR0104" H 4850 2500 50  0001 C CNN
F 1 "GND" H 4855 2577 50  0000 C CNN
F 2 "" H 4850 2750 50  0001 C CNN
F 3 "" H 4850 2750 50  0001 C CNN
	1    4850 2750
	1    0    0    -1  
$EndComp
Wire Wire Line
	4850 2750 4850 2700
$Comp
L Device:R R3
U 1 1 5C42456A
P 8400 1600
F 0 "R3" H 8470 1646 50  0000 L CNN
F 1 "0" H 8470 1555 50  0000 L CNN
F 2 "Resistor_SMD:R_0603_1608Metric_Pad1.05x0.95mm_HandSolder" V 8330 1600 50  0001 C CNN
F 3 "~" H 8400 1600 50  0001 C CNN
	1    8400 1600
	1    0    0    -1  
$EndComp
Text GLabel 8400 1400 1    50   Input ~ 0
Vcc
Wire Wire Line
	8400 1400 8400 1450
Wire Wire Line
	8400 1750 8400 1800
$Comp
L Battery_Management:MCP73831-2-OT U3
U 1 1 5C426728
P 2850 5400
F 0 "U3" H 2400 5700 50  0000 C CNN
F 1 "MCP73831-2-OT" H 2150 5600 50  0000 C CNN
F 2 "Package_TO_SOT_SMD:SOT-23-5" H 2900 5150 50  0001 L CIN
F 3 "http://ww1.microchip.com/downloads/en/DeviceDoc/20001984g.pdf" H 2700 5350 50  0001 C CNN
	1    2850 5400
	1    0    0    -1  
$EndComp
$Comp
L Device:R R4
U 1 1 5C42685D
P 2300 5700
F 0 "R4" H 2370 5746 50  0000 L CNN
F 1 "2k" H 2370 5655 50  0000 L CNN
F 2 "Resistor_SMD:R_0603_1608Metric_Pad1.05x0.95mm_HandSolder" V 2230 5700 50  0001 C CNN
F 3 "~" H 2300 5700 50  0001 C CNN
	1    2300 5700
	1    0    0    -1  
$EndComp
Wire Wire Line
	2450 5500 2300 5500
Wire Wire Line
	2300 5500 2300 5550
Wire Wire Line
	2300 5850 2300 5900
Wire Wire Line
	2300 5900 2850 5900
Wire Wire Line
	2850 5900 2850 5700
$Comp
L power:GND #PWR0105
U 1 1 5C427569
P 2850 5950
F 0 "#PWR0105" H 2850 5700 50  0001 C CNN
F 1 "GND" H 2855 5777 50  0000 C CNN
F 2 "" H 2850 5950 50  0001 C CNN
F 3 "" H 2850 5950 50  0001 C CNN
	1    2850 5950
	1    0    0    -1  
$EndComp
Wire Wire Line
	2850 5950 2850 5900
Connection ~ 2850 5900
$Comp
L Device:C C2
U 1 1 5C427EF2
P 3100 4700
F 0 "C2" H 3215 4746 50  0000 L CNN
F 1 "4.7uF" H 3215 4655 50  0000 L CNN
F 2 "Capacitor_SMD:C_0603_1608Metric_Pad1.05x0.95mm_HandSolder" H 3138 4550 50  0001 C CNN
F 3 "~" H 3100 4700 50  0001 C CNN
	1    3100 4700
	1    0    0    -1  
$EndComp
$Comp
L power:GND #PWR0106
U 1 1 5C427F80
P 3100 4900
F 0 "#PWR0106" H 3100 4650 50  0001 C CNN
F 1 "GND" H 3105 4727 50  0000 C CNN
F 2 "" H 3100 4900 50  0001 C CNN
F 3 "" H 3100 4900 50  0001 C CNN
	1    3100 4900
	1    0    0    -1  
$EndComp
Wire Wire Line
	2850 5100 2850 4500
Wire Wire Line
	2850 4500 3100 4500
Wire Wire Line
	3100 4500 3100 4550
Wire Wire Line
	3100 4850 3100 4900
Text GLabel 2850 4450 1    50   Input ~ 0
Vbus
Wire Wire Line
	2850 4500 2850 4450
Connection ~ 2850 4500
$Comp
L Device:C C1
U 1 1 5C429A7C
P 3550 5500
F 0 "C1" H 3665 5546 50  0000 L CNN
F 1 "4.7uF" H 3665 5455 50  0000 L CNN
F 2 "Capacitor_SMD:C_0603_1608Metric_Pad1.05x0.95mm_HandSolder" H 3588 5350 50  0001 C CNN
F 3 "~" H 3550 5500 50  0001 C CNN
	1    3550 5500
	1    0    0    -1  
$EndComp
Wire Wire Line
	3550 5350 3550 5300
Wire Wire Line
	3550 5300 3250 5300
Text GLabel 3600 5300 2    50   Input ~ 0
Vcc
Wire Wire Line
	3600 5300 3550 5300
Connection ~ 3550 5300
$Comp
L power:GND #PWR0107
U 1 1 5C42B814
P 3550 5700
F 0 "#PWR0107" H 3550 5450 50  0001 C CNN
F 1 "GND" H 3555 5527 50  0000 C CNN
F 2 "" H 3550 5700 50  0001 C CNN
F 3 "" H 3550 5700 50  0001 C CNN
	1    3550 5700
	1    0    0    -1  
$EndComp
Wire Wire Line
	3550 5700 3550 5650
Wire Wire Line
	3250 5500 3300 5500
Wire Wire Line
	3300 5500 3300 6050
Wire Wire Line
	3300 6050 3900 6050
Wire Wire Line
	3900 6050 3900 5200
$Comp
L Device:R R5
U 1 1 5C42CE3F
P 3900 5050
F 0 "R5" H 3970 5096 50  0000 L CNN
F 1 "470" H 3970 5005 50  0000 L CNN
F 2 "Resistor_SMD:R_0603_1608Metric_Pad1.05x0.95mm_HandSolder" V 3830 5050 50  0001 C CNN
F 3 "~" H 3900 5050 50  0001 C CNN
	1    3900 5050
	1    0    0    -1  
$EndComp
$Comp
L Device:LED D2
U 1 1 5C42CEC9
P 3900 4700
F 0 "D2" V 3938 4583 50  0000 R CNN
F 1 "LED" V 3847 4583 50  0000 R CNN
F 2 "LED_SMD:LED_0805_2012Metric_Pad1.15x1.40mm_HandSolder" H 3900 4700 50  0001 C CNN
F 3 "~" H 3900 4700 50  0001 C CNN
	1    3900 4700
	0    -1   -1   0   
$EndComp
Wire Wire Line
	3100 4500 3900 4500
Wire Wire Line
	3900 4500 3900 4550
Connection ~ 3100 4500
Wire Wire Line
	3900 4850 3900 4900
$Comp
L Connector:USB_B_Micro J2
U 1 1 5C43008F
P 5450 5100
F 0 "J2" H 5505 5567 50  0000 C CNN
F 1 "USB_B_Micro" H 5505 5476 50  0000 C CNN
F 2 "Connector_USB:USB_Micro-B_Molex_47346-0001" H 5600 5050 50  0001 C CNN
F 3 "~" H 5600 5050 50  0001 C CNN
	1    5450 5100
	1    0    0    -1  
$EndComp
Text GLabel 5800 4900 2    50   Input ~ 0
Vbus
$Comp
L power:GND #PWR0108
U 1 1 5C4303D4
P 5450 5550
F 0 "#PWR0108" H 5450 5300 50  0001 C CNN
F 1 "GND" H 5455 5377 50  0000 C CNN
F 2 "" H 5450 5550 50  0001 C CNN
F 3 "" H 5450 5550 50  0001 C CNN
	1    5450 5550
	1    0    0    -1  
$EndComp
Wire Wire Line
	5450 5550 5450 5500
Wire Wire Line
	5800 4900 5750 4900
$Comp
L Device:C C7
U 1 1 5C434C1F
P 8400 4100
F 0 "C7" H 8515 4146 50  0000 L CNN
F 1 "0.1uF" H 8515 4055 50  0000 L CNN
F 2 "Capacitor_SMD:C_0603_1608Metric_Pad1.05x0.95mm_HandSolder" H 8438 3950 50  0001 C CNN
F 3 "~" H 8400 4100 50  0001 C CNN
	1    8400 4100
	1    0    0    -1  
$EndComp
$Comp
L Device:C C6
U 1 1 5C434D91
P 7900 4100
F 0 "C6" H 8015 4146 50  0000 L CNN
F 1 "0.1uF" H 8015 4055 50  0000 L CNN
F 2 "Capacitor_SMD:C_0603_1608Metric_Pad1.05x0.95mm_HandSolder" H 7938 3950 50  0001 C CNN
F 3 "~" H 7900 4100 50  0001 C CNN
	1    7900 4100
	1    0    0    -1  
$EndComp
Wire Wire Line
	7900 3950 7900 3900
Wire Wire Line
	7900 4300 7900 4250
Wire Wire Line
	8100 4300 8100 4350
Wire Wire Line
	8100 4300 7900 4300
Wire Wire Line
	8100 3900 8100 3850
Text GLabel 8100 3850 1    50   Input ~ 0
Vcc
$Comp
L power:GND #PWR0109
U 1 1 5C438EC1
P 8100 4350
F 0 "#PWR0109" H 8100 4100 50  0001 C CNN
F 1 "GND" H 8105 4177 50  0000 C CNN
F 2 "" H 8100 4350 50  0001 C CNN
F 3 "" H 8100 4350 50  0001 C CNN
	1    8100 4350
	1    0    0    -1  
$EndComp
$Comp
L Device:L L1
U 1 1 5C43A564
P 5900 2050
F 0 "L1" H 5953 2096 50  0000 L CNN
F 1 "L" H 5953 2005 50  0000 L CNN
F 2 "Connector_Wire:SolderWirePad_1x02_P3.81mm_Drill1mm" H 5900 2050 50  0001 C CNN
F 3 "~" H 5900 2050 50  0001 C CNN
	1    5900 2050
	1    0    0    -1  
$EndComp
Wire Wire Line
	5450 2200 5800 2200
Wire Wire Line
	5800 2200 5800 2250
Wire Wire Line
	5800 2250 5900 2250
Wire Wire Line
	5900 2250 5900 2200
Wire Wire Line
	5900 1900 5900 1850
Wire Wire Line
	5900 1850 5800 1850
Wire Wire Line
	5800 1850 5800 2100
Wire Wire Line
	5800 2100 5450 2100
Wire Wire Line
	5450 1900 5600 1900
Wire Wire Line
	5600 1900 5600 1750
$Comp
L Device:R R6
U 1 1 5C43F0E2
P 5600 1600
F 0 "R6" H 5670 1646 50  0000 L CNN
F 1 "0" H 5670 1555 50  0000 L CNN
F 2 "Resistor_SMD:R_0603_1608Metric_Pad1.05x0.95mm_HandSolder" V 5530 1600 50  0001 C CNN
F 3 "~" H 5600 1600 50  0001 C CNN
	1    5600 1600
	1    0    0    -1  
$EndComp
Text GLabel 5600 1400 1    50   Input ~ 0
RESET
Wire Wire Line
	5600 1450 5600 1400
$Comp
L power:GND #PWR0110
U 1 1 5C440A38
P 4050 1850
F 0 "#PWR0110" H 4050 1600 50  0001 C CNN
F 1 "GND" H 4055 1677 50  0000 C CNN
F 2 "" H 4050 1850 50  0001 C CNN
F 3 "" H 4050 1850 50  0001 C CNN
	1    4050 1850
	1    0    0    -1  
$EndComp
Wire Wire Line
	4250 1900 4200 1900
Wire Wire Line
	4200 1900 4200 1800
Wire Wire Line
	4200 1800 4250 1800
Wire Wire Line
	4050 1800 4050 1850
Wire Wire Line
	4050 1800 4200 1800
Connection ~ 4200 1800
Wire Wire Line
	4250 1700 4200 1700
Wire Wire Line
	4200 1700 4200 1550
$Comp
L Device:C C4
U 1 1 5C44B52C
P 4200 1400
F 0 "C4" H 4315 1446 50  0000 L CNN
F 1 "0.01uF" H 4315 1355 50  0000 L CNN
F 2 "Capacitor_SMD:C_0603_1608Metric_Pad1.05x0.95mm_HandSolder" H 4238 1250 50  0001 C CNN
F 3 "~" H 4200 1400 50  0001 C CNN
	1    4200 1400
	1    0    0    -1  
$EndComp
$Comp
L Device:C C3
U 1 1 5C44D5B2
P 3900 1150
F 0 "C3" H 4015 1196 50  0000 L CNN
F 1 "10uF" H 4015 1105 50  0000 L CNN
F 2 "Capacitor_SMD:C_0603_1608Metric_Pad1.05x0.95mm_HandSolder" H 3938 1000 50  0001 C CNN
F 3 "~" H 3900 1150 50  0001 C CNN
	1    3900 1150
	1    0    0    -1  
$EndComp
$Comp
L power:GND #PWR0111
U 1 1 5C44D60E
P 3900 1350
F 0 "#PWR0111" H 3900 1100 50  0001 C CNN
F 1 "GND" H 3905 1177 50  0000 C CNN
F 2 "" H 3900 1350 50  0001 C CNN
F 3 "" H 3900 1350 50  0001 C CNN
	1    3900 1350
	1    0    0    -1  
$EndComp
Wire Wire Line
	3900 1350 3900 1300
Wire Wire Line
	3900 1000 3900 950 
Wire Wire Line
	3900 950  4200 950 
Wire Wire Line
	4200 950  4200 1250
Wire Wire Line
	4200 950  5150 950 
Wire Wire Line
	5150 950  5150 1300
Connection ~ 4200 950 
$Comp
L Device:C C5
U 1 1 5C45BA5A
P 5350 1050
F 0 "C5" H 5465 1096 50  0000 L CNN
F 1 "2.2uF" H 5465 1005 50  0000 L CNN
F 2 "Capacitor_SMD:C_0603_1608Metric_Pad1.05x0.95mm_HandSolder" H 5388 900 50  0001 C CNN
F 3 "~" H 5350 1050 50  0001 C CNN
	1    5350 1050
	1    0    0    -1  
$EndComp
$Comp
L power:GND #PWR0112
U 1 1 5C45BABE
P 5350 1250
F 0 "#PWR0112" H 5350 1000 50  0001 C CNN
F 1 "GND" H 5355 1077 50  0000 C CNN
F 2 "" H 5350 1250 50  0001 C CNN
F 3 "" H 5350 1250 50  0001 C CNN
	1    5350 1250
	1    0    0    -1  
$EndComp
Wire Wire Line
	5350 1250 5350 1200
Wire Wire Line
	5350 900  5350 850 
Wire Wire Line
	5350 850  5050 850 
Wire Wire Line
	5050 850  5050 1300
Text GLabel 4200 850  1    50   Input ~ 0
Vcc
Wire Wire Line
	4200 950  4200 850 
Wire Wire Line
	8400 3900 8400 3950
Wire Wire Line
	8400 4250 8400 4300
Wire Wire Line
	8400 4300 8100 4300
Connection ~ 8100 4300
$Comp
L Device:Battery BT1
U 1 1 5C420AF2
P 9700 2250
F 0 "BT1" H 9808 2296 50  0000 L CNN
F 1 "Battery" H 9808 2205 50  0000 L CNN
F 2 "Connector_Molex:Molex_PicoBlade_53048-0410_1x02_P1.25mm_Horizontal" V 9700 2310 50  0001 C CNN
F 3 "~" V 9700 2310 50  0001 C CNN
	1    9700 2250
	1    0    0    -1  
$EndComp
$Comp
L MCU_Microchip_ATtiny:ATtiny13-20MU U1
U 1 1 5C431572
P 2250 2000
F 0 "U1" H 1710 2046 50  0000 R CNN
F 1 "ATtiny13-20MU" H 1710 1955 50  0000 R CNN
F 2 "Package_DFN_QFN:QFN-20-1EP_4x4mm_P0.5mm_EP2.25x2.25mm" H 2250 2000 50  0001 C CIN
F 3 "http://ww1.microchip.com/downloads/en/DeviceDoc/doc2535.pdf" H 2250 2000 50  0001 C CNN
	1    2250 2000
	1    0    0    -1  
$EndComp
$Comp
L Device:C C8
U 1 1 5C43E562
P 2500 1050
F 0 "C8" H 2615 1096 50  0000 L CNN
F 1 "10uF" H 2615 1005 50  0000 L CNN
F 2 "Capacitor_SMD:C_0603_1608Metric_Pad1.05x0.95mm_HandSolder" H 2538 900 50  0001 C CNN
F 3 "~" H 2500 1050 50  0001 C CNN
	1    2500 1050
	1    0    0    -1  
$EndComp
$Comp
L power:GND #PWR0113
U 1 1 5C43E569
P 2500 1250
F 0 "#PWR0113" H 2500 1000 50  0001 C CNN
F 1 "GND" H 2505 1077 50  0000 C CNN
F 2 "" H 2500 1250 50  0001 C CNN
F 3 "" H 2500 1250 50  0001 C CNN
	1    2500 1250
	1    0    0    -1  
$EndComp
Wire Wire Line
	2500 1250 2500 1200
Wire Wire Line
	2500 800  2500 850 
Wire Wire Line
	2500 850  2250 850 
Wire Wire Line
	2250 850  2250 1400
Connection ~ 2500 850 
Wire Wire Line
	2500 850  2500 900 
Connection ~ 8100 3900
Wire Wire Line
	8100 3900 8400 3900
Wire Wire Line
	7900 3900 8100 3900
$EndSCHEMATC
